{
    "name": "cardbench",
    "type": "project:application",
    "platform": {
        "id": "web",
        "displayName": "Web",
        "output": "scripts",
        "index": "index.html",
        "baseDir": "."
    },
    "transpiler": {
        "id": "babel",
        "displayName": "Babel",
        "fileExtension": ".js",
        "options": {
            "plugins": [
                "inline-json-import",
                "transform-es2015-modules-amd"
            ]
        },
        "source": "src/**/*.js"
    },
    "markupProcessor": {
        "id": "none",
        "displayName": "None",
        "fileExtension": ".html",
        "source": "src/**/*.html"
    },
    "cssProcessor": {
        "id": "sass",
        "displayName": "Sass",
        "fileExtension": ".scss",
        "source": "src/**/*.scss"
    },
    "editor": {
        "id": "vscode",
        "displayName": "Visual Studio Code"
    },
    "unitTestRunner": {
        "id": "none",
        "displayName": "None"
    },
    "paths": {
        "root": "src",
        "resources": "resources",
        "elements": "resources/elements",
        "attributes": "resources/attributes",
        "valueConverters": "resources/value-converters",
        "bindingBehaviors": "resources/binding-behaviors"
    },
    "build": {
        "targets": [
            {
                "id": "web",
                "displayName": "Web",
                "output": "scripts",
                "index": "index.html",
                "baseDir": "."
            }
        ],
        "loader": {
            "type": "require",
            "configTarget": "vendor-bundle.js",
            "includeBundleMetadataInConfig": "auto",
            "plugins": [
                {
                    "name": "text",
                    "extensions": [
                        ".html",
                        ".css"
                    ],
                    "stub": true
                }
            ]
        },
        "options": {
            "minify": "stage & prod",
            "sourcemaps": "dev & stage",
            "rev": "stage & prod"
        },
        "bundles": [
            {
                "name": "app-bundle.js",
                "source": [
                    "[**/*.js]",
                    "**/*.{css,html}"
                ]
            },
            {
                "name": "vendor-bundle.js",
                "prepend": [
                    "node_modules/bluebird/js/browser/bluebird.js",
                    "node_modules/aurelia-cli/lib/resources/scripts/configure-bluebird.js",
                    "node_modules/whatwg-fetch/fetch.js",
                    "node_modules/ladda/dist/spin.min.js",
                    "node_modules/ladda/dist/ladda.min.js",
                    "node_modules/requirejs/require.js"
                ],
                "dependencies": [
                    "lodash",
                    "moment",
                    "jquery",
                    {
                        "name": "popper.js",
                        "path": "../node_modules/popper.js/dist/umd",
                        "main": "popper.min"
                    },
                    {
                        "name": "bootstrap",
                        "path": "../node_modules/bootstrap/dist",
                        "main": "js/bootstrap.min.js",
                        "deps": [
                            "jquery"
                        ],
                        "exports": "$"
                    },
                    "aurelia-fetch-client",
                    "aurelia-binding",
                    "aurelia-bootstrapper",
                    "aurelia-dependency-injection",
                    "aurelia-event-aggregator",
                    "aurelia-framework",
                    "aurelia-history",
                    "aurelia-history-browser",
                    "aurelia-loader",
                    "aurelia-loader-default",
                    "aurelia-logging",
                    "aurelia-logging-console",
                    "aurelia-metadata",
                    "aurelia-pal",
                    "aurelia-pal-browser",
                    "aurelia-path",
                    "aurelia-polyfills",
                    "aurelia-route-recognizer",
                    "aurelia-router",
                    "aurelia-task-queue",
                    "aurelia-templating",
                    "aurelia-templating-binding",
                    "text",
                    "numeral",
                    {
                        "name": "aurelia-templating-resources",
                        "path": "../node_modules/aurelia-templating-resources/dist/amd",
                        "main": "aurelia-templating-resources"
                    },
                    {
                        "name": "aurelia-templating-router",
                        "path": "../node_modules/aurelia-templating-router/dist/amd",
                        "main": "aurelia-templating-router"
                    },
                    {
                        "name": "aurelia-testing",
                        "path": "../node_modules/aurelia-testing/dist/amd",
                        "main": "aurelia-testing",
                        "env": "dev"
                    },
                    {
                        "name": "redux",
                        "path": "../node_modules/redux/dist",
                        "main": "redux.min"
                    },
                    {
                        "name": "redux-logger",
                        "path": "../node_modules/redux-logger/dist",
                        "main": "redux-logger"
                    },
                    {
                        "name": "aurelia-dialog",
                        "path": "../node_modules/aurelia-dialog/dist/amd",
                        "main": "aurelia-dialog"
                    },
                    {
                        "name": "aurelia-validation",
                        "path": "../node_modules/aurelia-validation/dist/amd",
                        "main": "aurelia-validation"
                    },
                    {
                        "name": "tippy",
                        "path": "../node_modules/tippy.js/dist",
                        "main": "tippy.all"
                    },
                    {
                        "name": "aurelia-mask",
                        "path": "../node_modules/aurelia-mask/dist",
                        "main": "masked-input.js"
                    }
                ]
            }
        ]
    }
}