[
    "AAA",
    "ACB",
    "ACM",
    "ACV",
    "AGR",
    "AMD",
    "ANV",
    "APC",
    "APG",
    "ART",
    "ASM",
    "AST",
    "ATB",
    "BCC",
    "BFC",
    "BID",
    "BMI",
    "BMP",
    "BSI",
    "BSR",
    "BVH",
    "BWE",
    "C32",
    "C47",
    "CCL",
    "CEO",
    "CIA",
    "CII",
    "CMG",
    "CSM",
    "CSV",
    "CTD",
    "CTG",
    "CTI",
    "CTS",
    "CVT",
    "DAG",
    "DAH",
    "DCM",
    "DGW",
    "DHG",
    "DIG",
    "DLG",
    "DPG",
    "DPM",
    "DPS",
    "DQC",
    "DRC",
    "DRH",
    "DS3",
    "DVN",
    "DXG",
    "E1VFVN30",
    "EIB",
    "EVE",
    "EVG",
    "FCN",
    "FIT",
    "FLC",
    "FMC",
    "FPT",
    "FTM",
    "FTS",
    "GAS",
    "GEX",
    "GIL",
    "GMD",
    "GTN",
    "GVR",
    "HAG",
    "HAH",
    "HAI",
    "HAR",
    "HAX",
    "HBC",
    "HCM",
    "HD2",
    "HDB",
    "HDC",
    "HDG",
    "HHG",
    "HHS",
    "HID",
    "HII",
    "HLD",
    "HNG",
    "HPG",
    "HQC",
    "HSG",
    "HT1",
    "HU3",
    "HUT",
    "HVG",
    "HVN",
    "IBC",
    "IDI",
    "IJC",
    "ITA",
    "JVC",
    "KBC",
    "KDC",
    "KDH",
    "KLF",
    "KSA",
    "KSB",
    "KVC",
    "L14",
    "LCG",
    "LDG",
    "LHG",
    "LPB",
    "LSS",
    "LTG",
    "MBB",
    "MBS",
    "MSN",
    "MSR",
    "MWG",
    "NDN",
    "NKG",
    "NLG",
    "NSH",
    "NT2",
    "NTL",
    "NVB",
    "NVL",
    "NVT",
    "OGC",
    "OIL",
    "PAN",
    "PC1",
    "PDR",
    "PET",
    "PHC",
    "PHR",
    "PLX",
    "PMG",
    "PNJ",
    "POW",
    "PPC",
    "PPI",
    "PTB",
    "PVB",
    "PVC",
    "PVD",
    "PVI",
    "PVS",
    "PVT",
    "PVX",
    "PXL",
    "PXS",
    "QCG",
    "QNS",
    "REE",
    "ROS",
    "SAB",
    "SAM",
    "SBS",
    "SBT",
    "SCR",
    "SDI",
    "SHB",
    "SHI",
    "SHN",
    "SHS",
    "SJD",
    "SJS",
    "SKG",
    "SPP",
    "SSI",
    "STB",
    "TCH",
    "TCM",
    "TDC",
    "TDH",
    "TIG",
    "TLD",
    "TLH",
    "TNA",
    "TNG",
    "TNI",
    "TS4",
    "TSC",
    "TTB",
    "TTF",
    "TV2",
    "TVC",
    "VC3",
    "VCB",
    "VCG",
    "VCI",
    "VCS",
    "VDS",
    "VE9",
    "VGC",
    "VGS",
    "VGT",
    "VHC",
    "VHG",
    "VIB",
    "VIC",
    "VID",
    "VIX",
    "VJC",
    "VKC",
    "VND",
    "VNE",
    "VNG",
    "VNM",
    "VNS",
    "VOS",
    "VPB",
    "VPH",
    "VRC",
    "VRE",
    "VSC"
]